<?xml version="1.0" encoding="UTF-8" standalone="no"?>
<!-- Created with Inkscape (http://www.inkscape.org/) -->

<svg
   xmlns:dc="http://purl.org/dc/elements/1.1/"
   xmlns:cc="http://creativecommons.org/ns#"
   xmlns:rdf="http://www.w3.org/1999/02/22-rdf-syntax-ns#"
   xmlns:svg="http://www.w3.org/2000/svg"
   xmlns="http://www.w3.org/2000/svg"
   xmlns:sodipodi="http://sodipodi.sourceforge.net/DTD/sodipodi-0.dtd"
   xmlns:inkscape="http://www.inkscape.org/namespaces/inkscape"
   version="1.1"
   id="svg866"
   width="200"
   height="200"
   viewBox="0 0 200 200"
   sodipodi:docname="ru.svg"
   inkscape:version="0.92.4 (5da689c313, 2019-01-14)">
  <metadata
     id="metadata872">
    <rdf:RDF>
      <cc:Work
         rdf:about="">
        <dc:format>image/svg+xml</dc:format>
        <dc:type
           rdf:resource="http://purl.org/dc/dcmitype/StillImage" />
        <dc:title></dc:title>
      </cc:Work>
    </rdf:RDF>
  </metadata>
  <defs
     id="defs870" />
  <sodipodi:namedview
     pagecolor="#ffffff"
     bordercolor="#666666"
     borderopacity="1"
     objecttolerance="10"
     gridtolerance="10"
     guidetolerance="10"
     inkscape:pageopacity="0"
     inkscape:pageshadow="2"
     inkscape:window-width="1920"
     inkscape:window-height="1060"
     id="namedview868"
     showgrid="false"
     inkscape:zoom="0.5"
     inkscape:cx="79.760704"
     inkscape:cy="103.92979"
     inkscape:window-x="0"
     inkscape:window-y="0"
     inkscape:window-maximized="1"
     inkscape:current-layer="g896"
     fit-margin-top="0"
     fit-margin-left="0"
     fit-margin-right="0"
     fit-margin-bottom="0" />
  <g
     id="g896"
     transform="translate(-33.781106,43.303957)">
    <g
       id="g909"
       transform="translate(7.7052883,-3.9919468)">
      <path
         inkscape:connector-curvature="0"
         id="path902"
         d="m 36.341106,149.42192 v -7.2 h -1.28 c -0.704,0 -1.28,-0.0592 -1.28,-0.13153 0,-0.0723 0.307984,-0.93633 0.68441,-1.92 l 0.68441,-1.78847 h 7.15559 7.15559 v 9.12 9.12 h -2.08 -2.08 v -7.2 -7.2 h -2.4 -2.4 v 7.2 7.2 h -2.08 -2.08 z m 17.6,0 v -7.2 h -1.267019 -1.267018 l 0.700285,-1.94629 0.700286,-1.94629 5.184137,0.10629 c 5.740576,0.1177 6.183829,0.26161 7.709329,2.50304 1.005482,1.47735 1.040013,5.80147 0.06165,7.71922 -0.870748,1.70681 -3.185586,2.83643 -5.821648,2.8409 l -1.84,0.003 v 2.56 2.56 h -2.08 -2.08 z m 7.704837,-2.26248 c 0.45874,-0.41515 0.615163,-0.98582 0.615163,-2.24426 0,-2.17082 -0.501029,-2.69326 -2.582857,-2.69326 h -1.577143 v 2.66667 c 0,1.46666 0.108,2.77608 0.24,2.9098 0.391798,0.39693 2.640645,-0.0379 3.304837,-0.63895 z m 7.015163,0.34248 v -9.12 h 6.101565 6.101565 l -0.227277,0.72 c -0.125002,0.396 -0.400909,1.224 -0.613127,1.84 l -0.385852,1.12 -3.408436,0.0908 -3.408438,0.0908 v 1.58918 1.58917 h 3.394237 c 3.106163,0 3.374877,0.0475 3.16615,0.56 -0.125446,0.308 -0.442387,1.172 -0.704317,1.92 l -0.47623,1.36 h -2.68992 -2.68992 v 1.76 1.76 h 4.194691 4.194691 l -0.216419,0.86228 c -0.11903,0.47425 -0.415293,1.33825 -0.658361,1.92 l -0.441946,1.05777 h -5.616326 -5.61633 z m 14.72,-0.0167 v -9.13672 l 1.650614,0.0967 1.650615,0.0967 2.32087,4.0987 2.320871,4.09871 1.834771,-3.29871 c 1.009123,-1.81428 2.061001,-3.6947 2.33751,-4.1787 0.438368,-0.76733 0.698765,-0.88 2.033744,-0.88 h 1.531005 v 9.12 9.12 h -1.911664 -1.911667 l -0.08833,-4.88 -0.08834,-4.88 -1.215661,2.16 c -1.200249,2.13261 -1.232704,2.15995 -2.56,2.15653 -1.307945,-0.003 -1.374659,-0.0562 -2.464339,-1.95005 l -1.12,-1.94659 -0.08855,4.67006 -0.08856,4.67005 h -2.071443 -2.071446 z m 19.344584,8.73196 c -0.0854,-0.22263 -0.1169,-4.29063 -0.07,-9.04 l 0.0854,-8.63526 2.16,-0.0946 2.16,-0.0946 v 2.52835 2.52834 l 2.11728,0.19772 c 2.67613,0.2499 4.61651,1.3232 5.40814,2.99145 0.66412,1.39951 0.76544,4.81248 0.19425,6.5432 -0.47135,1.42819 -1.8427,2.75954 -3.26164,3.16648 -1.6725,0.47967 -8.60196,0.4079 -8.79344,-0.0911 z m 7.59022,-3.96483 c 0.41877,-0.37901 0.5852,-0.98613 0.5852,-2.13483 0,-2.09724 -0.59869,-2.7756 -2.4496,-2.7756 h -1.3904 v 2.72 2.72 h 1.3348 c 0.79298,0 1.57234,-0.21497 1.92,-0.5296 z m 7.3052,-4.75043 v -9.12 h 6.10156 6.10157 l -0.22728,0.72 c -0.125,0.396 -0.40091,1.224 -0.61313,1.84 l -0.38585,1.12 -3.40844,0.0908 -3.40843,0.0908 v 1.58918 1.58917 h 3.39423 c 3.10617,0 3.37488,0.0475 3.16615,0.56 -0.12544,0.308 -0.44238,1.172 -0.70431,1.92 l -0.47623,1.36 h -2.68992 -2.68992 v 1.76 1.76 h 4.19469 4.19469 l -0.21642,0.86228 c -0.11903,0.47425 -0.41529,1.33825 -0.65836,1.92 l -0.44195,1.05777 h -5.61632 -5.61633 z m 15.68,1.92 v -7.2 h -1.30157 c -1.43509,0 -1.40365,0.17464 -0.4609,-2.56 l 0.38612,-1.12 4.76818,-0.0871 c 4.4183,-0.0807 4.87383,-0.0337 6.20817,0.64 2.50992,1.26727 3.58426,4.89862 2.55044,8.62073 -0.63018,2.26888 -3.21497,3.78072 -6.47044,3.78454 l -1.52,0.002 v 2.56 2.56 h -2.08 -2.08 z m 7.62796,-2.21082 c 0.71514,-0.71514 0.86337,-3.24003 0.24557,-4.18291 -0.44747,-0.68293 -0.77192,-0.80627 -2.12091,-0.80627 h -1.59262 v 2.92349 2.9235 l 1.51237,-0.20729 c 0.8318,-0.11401 1.71182,-0.40674 1.95559,-0.65052 z m 16.59367,7.89082 c -0.73708,-2.05647 -0.69519,-2.32 0.36877,-2.32 1.80631,0 2.11719,-0.82633 2.2396,-5.95303 l 0.11001,-4.60697 h -1.29702 -1.29703 l 0.69083,-1.92 0.69083,-1.92 h 6.33619 6.33619 v 9.12 9.12 h -2.08 -2.08 v -7.2 -7.2 h -1.6 -1.6 l -0.003,3.44 c -0.006,7.88437 -1.41946,10.96 -5.03848,10.96 -1.18076,0 -1.25562,-0.064 -1.77747,-1.52 z m 18.65837,-5.66403 v -7.21597 h -1.12 c -0.616,0 -1.12,-0.0953 -1.12,-0.21188 0,-0.11653 0.2423,-0.98053 0.53844,-1.92 l 0.53844,-1.70812 h 2.65343 2.65344 l 0.0881,5.04 0.0881,5.04 2.86165,-5.04 2.86165,-5.04 h 1.69835 1.69835 v 9.12 9.12 h -2.08 -2.08 l -0.005,-5.04 -0.005,-5.04 -2.80085,4.96 -2.80084,4.96 -1.83425,0.096 -1.83426,0.096 v -7.21597 z m 17.6,-1.93597 v -9.12 h 5.6 c 3.08,0 5.59988,0.108 5.59974,0.24 -1.4e-4,0.132 -0.27334,0.96 -0.6071,1.84 l -0.60684,1.6 -2.9129,0.092 -2.9129,0.092 v 7.18801 7.18799 h -2.08 -2.08 z m 9.28,8.85369 c 0,-0.14648 1.07659,-3.38648 2.39242,-7.2 l 2.39242,-6.93369 h -1.14666 c -0.96561,0 -1.11064,-0.0884 -0.91857,-0.56 0.12545,-0.308 0.44239,-1.172 0.70432,-1.92 l 0.47623,-1.36 h 2.45337 2.45337 l 3.19655,8.84387 c 1.7581,4.86413 3.24455,8.96813 3.30322,9.12 0.0587,0.15187 -0.82976,0.27613 -1.97429,0.27613 h -2.08095 l -0.53143,-1.6 -0.53143,-1.6 h -2.66237 -2.66237 l -0.38383,1.6 -0.38383,1.6 h -2.04809 c -1.12644,0 -2.04808,-0.11984 -2.04808,-0.26631 z m 8.8754,-6.85369 c -0.0842,-0.22 -0.41389,-1.228 -0.73267,-2.24 -0.31879,-1.012 -0.67258,-1.84 -0.78621,-1.84 -0.11363,0 -0.37189,0.684 -0.57391,1.52 -0.20202,0.836 -0.45955,1.844 -0.57228,2.24 -0.19187,0.67398 -0.10836,0.72 1.30659,0.72 1.07755,0 1.4676,-0.11485 1.35848,-0.4 z m -64.85638,-0.16 c 0.0105,-0.132 0.3348,-1.104 0.72076,-2.16 l 0.70173,-1.92 3.75925,-0.0902 c 2.06758,-0.0496 3.75924,0.0305 3.75924,0.17787 0,0.14741 -0.30122,1.15998 -0.66938,2.25016 l -0.66938,1.98213 h -3.81062 c -2.09584,0 -3.80206,-0.108 -3.7916,-0.24 z M 67.456495,129.44383 c -1.647386,-0.41471 -3.440684,-1.77467 -4.105377,-3.11335 -0.520938,-1.04916 -0.610012,-1.95282 -0.610012,-6.18856 0,-5.8294 0.330128,-6.87317 2.636479,-8.33582 3.539998,-2.245 8.270171,-1.14183 10.048225,2.34345 0.518886,1.0171 0.716179,2.12465 0.837478,4.70146 0.262698,5.5805 -0.677923,8.387 -3.294566,9.82992 -1.448224,0.79861 -3.978992,1.14887 -5.512227,0.7629 z m 3.619155,-4.64737 c 0.747325,-0.74732 0.785456,-0.97328 0.785456,-4.65454 0,-3.68126 -0.03813,-3.90722 -0.785456,-4.65454 -1.358627,-1.35863 -3.358877,-0.92876 -3.980886,0.85554 -0.448109,1.28545 -0.461037,6.34808 -0.01926,7.53817 0.68518,1.84575 2.625705,2.28981 4.000134,0.91537 z m 12.166029,4.60212 c -1.694055,-0.4188 -3.234954,-1.64934 -4.101232,-3.2752 -0.64513,-1.21079 -0.714752,-1.79342 -0.714752,-5.98146 0,-4.18804 0.06962,-4.77067 0.714752,-5.98146 1.331379,-2.49877 4.183315,-3.88827 7.097907,-3.4582 2.532432,0.37368 4.395104,2.00579 4.98441,4.36744 0.201123,0.806 0.130617,0.86513 -1.430807,1.2 -2.132809,0.4574 -2.570851,0.44408 -2.570851,-0.0782 0,-0.68925 -1.095939,-1.4896 -2.039744,-1.4896 -0.496342,0 -1.206355,0.33701 -1.6548,0.78546 -0.747325,0.74734 -0.785456,0.9733 -0.785456,4.65456 0,3.68126 0.03813,3.90722 0.785456,4.65454 0.432,0.432 1.158544,0.78546 1.614544,0.78546 0.990083,0 2.4,-1.30738 2.4,-2.22546 0,-0.79099 0.382899,-0.81233 2.378045,-0.13252 1.503571,0.51232 1.528669,0.5429 1.349843,1.64486 -0.55456,3.41737 -4.201837,5.47551 -8.027315,4.52978 z m 13.858102,-0.14176 c -1.776755,-0.56579 -3.605232,-2.44634 -4.095597,-4.21225 -0.186729,-0.67246 -0.33951,-2.87865 -0.33951,-4.90265 0,-4.42164 0.321267,-5.72931 1.813309,-7.38082 1.106317,-1.22456 3.373731,-2.22189 5.041203,-2.21739 2.366534,0.006 4.884544,1.71445 5.784174,3.92364 0.48554,1.19233 0.48191,1.20883 -0.33448,1.51922 -1.44365,0.54887 -3.34777,0.7515 -3.34777,0.35625 0,-0.67964 -1.27955,-1.6409 -2.184225,-1.6409 -0.558278,0 -1.201021,0.31593 -1.68,0.82578 -0.730851,0.77796 -0.775779,1.04517 -0.775779,4.61422 0,3.56905 0.04493,3.83626 0.775779,4.61422 1.381232,1.47025 3.535325,0.80762 4.050775,-1.24608 0.23985,-0.95566 0.0816,-0.93412 2.24419,-0.30543 1.89804,0.55177 2.00472,0.77855 1.23398,2.6232 -1.31259,3.14148 -4.67108,4.54829 -8.186049,3.42899 z m 50.996719,0.18701 c -1.64739,-0.41471 -3.44069,-1.77467 -4.10538,-3.11335 -0.52093,-1.04916 -0.61001,-1.95282 -0.61001,-6.18856 0,-5.8294 0.33013,-6.87317 2.63648,-8.33582 3.45051,-2.18825 8.20026,-1.12054 9.56703,2.1506 0.68269,1.6339 0.56147,1.91777 -0.98521,2.30723 -2.00055,0.50375 -2.26896,0.4603 -2.67605,-0.43318 -0.7507,-1.64761 -3.34742,-1.44902 -4.08334,0.31228 -0.61273,1.46649 -0.61273,6.53129 0,7.99778 0.8355,1.99963 3.39236,1.94514 4.23581,-0.0903 0.2709,-0.65374 0.53676,-1.23596 0.59079,-1.29383 0.16684,-0.17865 3.67449,1.00831 3.67449,1.24343 0,0.12173 -0.22087,0.84733 -0.49082,1.61245 -0.54451,1.54331 -1.48295,2.68833 -2.73914,3.34209 -1.08738,0.5659 -3.69815,0.82057 -5.01465,0.48916 z m -99.915394,-7.54191 v -7.2 h -1.301564 c -1.435097,0 -1.404523,0.17042 -0.459278,-2.56 l 0.387734,-1.12 h 5.086554 c 4.780488,0 5.159227,0.0452 6.294312,0.75089 1.478971,0.91952 2.1516,2.15485 2.380409,4.3718 0.518261,5.02147 -1.758825,7.8126 -6.388167,7.83028 l -1.84,0.007 v 2.56 2.56 h -2.08 -2.08 z m 7.632981,-2.21584 c 0.362631,-0.36263 0.527019,-1.08048 0.527019,-2.30139 0,-2.12657 -0.543424,-2.68277 -2.621162,-2.68277 h -1.378838 v 2.92162 2.92161 l 1.472981,-0.16602 c 0.810139,-0.0913 1.710139,-0.40319 2,-0.69305 z m 53.487023,2.23181 v -7.21597 h -1.25902 -1.25902 l 0.6484,-1.92 0.64839,-1.92 h 2.69062 2.69063 v 5.18755 5.18755 l 2.84541,-5.10755 2.84541,-5.10755 1.79459,-0.096 1.79459,-0.096 v 9.13597 9.13597 h -2.07188 -2.07187 l -0.0881,-5.02719 -0.0881,-5.02719 -2.76155,4.94719 -2.76156,4.94719 -1.79844,0.096 -1.79845,0.096 z m 17.92,0 v -7.21597 h -1.25902 -1.25902 l 0.6484,-1.92 0.64839,-1.92 h 2.69062 2.69063 l 1.6e-4,5.2 1.7e-4,5.2 2.90323,-5.2 2.90323,-5.2 h 1.73661 1.7366 v 9.12 9.12 h -2.07188 -2.07187 l -0.0881,-5.0387 -0.0881,-5.0387 -2.74516,4.9587 -2.74515,4.9587 -1.81485,0.096 -1.81484,0.096 z m 30.47499,-1.84123 0.085,-9.05474 h 2.03114 2.03113 l 0.0489,3.52 c 0.044,3.17033 0.10661,3.52 0.63019,3.52 0.43484,0 0.9627,-0.88708 2.09463,-3.52 l 1.51329,-3.52 2.30537,-0.094 c 1.26796,-0.0517 2.30538,-0.0137 2.30538,0.0846 0,0.0982 -0.9204,2.01534 -2.04532,4.26025 l -2.04533,4.08166 2.19597,4.63377 c 1.20778,2.54857 2.20018,4.74177 2.20533,4.87377 0.005,0.132 -1.03465,0.23612 -2.31065,0.23138 l -2.32,-0.009 -1.62535,-3.59137 c -1.25115,-2.76456 -1.76685,-3.59139 -2.24,-3.59139 -0.56605,0 -0.61843,0.27832 -0.66245,3.52 l -0.0478,3.52 -2.1172,0.0947 -2.11721,0.0947 0.085,-9.05473 z m 14.64501,8.93726 c 0,-0.0484 1.06917,-3.2884 2.37595,-7.2 l 2.37594,-7.112 h -1.07496 -1.07496 l 0.64839,-1.92 0.6484,-1.92 h 2.38695 2.38695 l 0.43376,1.04 c 0.23856,0.572 1.65819,4.424 3.15472,8.56 1.49653,4.136 2.82408,7.77899 2.95011,8.09554 0.20917,0.52535 0.0386,0.5672 -1.95634,0.48 l -2.18548,-0.0955 -0.47461,-1.53197 -0.47462,-1.53198 -2.56514,0.092 -2.56514,0.092 -0.47114,1.52 -0.47114,1.52 h -2.02382 c -1.1131,0 -2.02382,-0.0396 -2.02382,-0.088 z m 8.8754,-7.032 c -0.0842,-0.22 -0.41389,-1.228 -0.73267,-2.24 -0.31879,-1.012 -0.67258,-1.84 -0.78621,-1.84 -0.11363,0 -0.37189,0.684 -0.57391,1.52 -0.20202,0.836 -0.45955,1.844 -0.57228,2.24 -0.19187,0.67398 -0.10836,0.72 1.30659,0.72 1.07755,0 1.4676,-0.11485 1.35848,-0.4 z m 8.9049,4.12298 c 0.78083,-1.64837 1.4197,-3.1522 1.4197,-3.34186 0,-0.18965 -0.27371,-0.53654 -0.60824,-0.77086 -0.33454,-0.23432 -0.92571,-0.96409 -1.31372,-1.62173 -0.97477,-1.65209 -0.84343,-5.63628 0.23566,-7.14908 1.34306,-1.88287 2.48974,-2.1872 8.69094,-2.30657 5.29318,-0.10188 5.55301,-0.0785 5.32615,0.48 -0.13116,0.32292 -0.45279,1.19912 -0.71472,1.94712 -0.33537,0.95773 -0.65664,1.36 -1.08615,1.36 -0.58182,0 -0.60992,0.3317 -0.60992,7.2 v 7.2 h -2.08 -2.08 v -2.66667 c 0,-1.46666 -0.0803,-2.747 -0.17853,-2.84519 -0.0982,-0.0982 -0.47446,-0.10114 -0.83616,-0.007 -0.44759,0.11705 -1.05022,1.02576 -1.88682,2.84519 l -1.22919,2.67367 h -2.23435 -2.23436 z m 7.1797,-8.84298 v -2.56 h -1.44 c -1.87704,0 -2.72,0.79337 -2.72,2.56 0,1.76663 0.84296,2.56 2.72,2.56 h 1.44 z m -65.07608,-7.18874 c -0.67984,-0.24236 -1.64138,-0.82895 -2.13675,-1.30355 -1.05408,-1.00987 -1.80912,-2.63094 -1.39337,-2.99157 0.32584,-0.28264 3.0349,-1.09411 3.13256,-0.93832 0.0352,0.0562 0.23231,0.49421 0.43796,0.97335 0.68062,1.58578 3.13007,1.59667 3.92639,0.0175 0.24645,-0.48875 0.47484,-0.93461 0.50754,-0.99081 0.0912,-0.15674 2.80351,0.6569 3.12795,0.93832 0.45435,0.39412 -0.41713,2.11204 -1.59688,3.14788 -1.05123,0.92298 -2.8614,1.62444 -4.12932,1.60015 -0.352,-0.007 -1.19624,-0.21055 -1.87608,-0.45291 z M 116.18111,89.978043 c -5.38885,-3.44197 -16.468206,-10.79181 -19.799294,-13.13448 l -3.479292,-2.4469 5.860524,-0.0874 5.860522,-0.0874 -2.55978,-1.68 -2.559782,-1.679996 h -5.712963 -5.712966 l -2.428487,-1.81992 C 80.587509,65.248447 72.427093,58.726225 66.144191,53.452292 62.559885,50.443591 59.346845,47.758487 59.0041,47.485396 c -0.610995,-0.486826 -0.579203,-0.671306 1.626829,-9.44 1.237501,-4.918909 2.803859,-10.959469 3.480795,-13.423469 l 1.230793,-4.48 1.804666,-0.09553 1.804669,-0.09553 0.836953,-2.784467 c 0.959015,-3.190553 2.883143,-9.2342815 3.204202,-10.0644675 0.190467,-0.492499 3.01e-4,-0.56 -1.577664,-0.56 -0.986832,0 -1.794237,-0.07829 -1.794237,-0.173974 0,-0.09569 0.521885,-1.571687 1.159741,-3.28 1.407049,-3.76837496 2.618035,-6.226452 4.522678,-9.180205 l 1.440643,-2.234179 -0.564076,-1.445821 c -2.644714,-6.7788335 -2.856634,-7.6552965 -2.868071,-11.8617245 -0.01088,-4.009055 -0.0089,-4.020072 1.196234,-6.459098 1.830294,-3.704395 4.439085,-5.776224 8.622905,-6.848069 3.997412,-1.024089 5.961248,-0.247813 14.628826,5.782565 3.091614,2.150959 5.784224,4.005567 5.983574,4.121352 0.19935,0.115784 1.19122,-0.07462 2.20416,-0.423121 4.60495,-1.584342 6.56139,-1.757731 19.83339,-1.757731 13.28367,0 15.03596,0.155392 19.95238,1.76937 l 1.9722,0.647438 1.67771,-1.230764 c 3.7498,-2.750846 10.74369,-7.399733 12.34265,-8.204259 2.26581,-1.140044 4.22252,-1.34084 6.75181,-0.692865 5.81712,1.490277 9.45486,5.811369 9.85925,11.711324 l 0.17545,2.559756 h 0.91427 c 0.50286,0 0.91428,0.05933 0.91428,0.13185 0,1.763131 -1.94568,8.258721 -3.2401,10.8170015 l -0.60153,1.188853 1.61878,2.479723 c 1.93764,2.968172 3.40407,5.99571804 4.73831,9.782572 l 0.98654,2.8 h -1.591 c -0.87505,0 -1.591,0.133571 -1.591,0.296822 0,0.163255 0.65228,2.359255 1.44952,4.8800005 1.44362,4.564519 4.27501,14.359904 5.60278,19.383178 0.62394,2.360538 0.77748,2.64 1.45042,2.64 0.86112,0 0.72336,-0.399978 2.69698,7.830371 1.27018,5.296896 1.28723,5.442403 0.69367,5.92 -0.33469,0.269296 -3.61561,3.015018 -7.29095,6.1016 -9.23017,7.7516 -8.24615,7.136352 -11.28532,7.056016 l -2.55643,-0.06758 -2.27485,1.699795 -2.27484,1.699795 2.65451,0.16 2.65451,0.16 -6.88,5.140373 c -7.4014,5.529926 -11.75607,8.616626 -18.56,13.155776 -6.11821,4.08169 -14.04508,9.06385 -14.42104,9.06385 -0.17501,0 -1.64587,-0.81298 -3.26858,-1.80663 -1.62271,-0.99364 -3.09438,-1.80395 -3.27038,-1.80068 -0.176,0.003 -1.6576,0.81626 -3.29245,1.80663 -1.63484,0.99038 -3.14684,1.78971 -3.36,1.7763 -0.21315,-0.0134 -1.53955,-0.76018 -2.94755,-1.6595 z m 15.65442,-37.010455 c 2.64955,-0.935162 4.42427,-2.042003 5.74135,-3.580714 2.022,-2.362256 2.12423,-3.052589 2.12423,-14.344064 0,-5.557811 -0.1342,-10.57303 -0.29822,-11.144937 -0.5521,-1.925072 -9.7174,-17.3766085 -10.74178,-18.1093035 -0.72594,-0.519229 -1.42813,-0.686643 -2.88,-0.686643 -1.45188,0 -2.15407,0.167414 -2.88,0.686643 -1.02439,0.732695 -10.18968,16.1842315 -10.74179,18.1093035 -0.16402,0.571907 -0.29821,5.594675 -0.29821,11.161708 0,10.963229 0.0992,11.733437 1.79925,13.96225 1.57745,2.06815 4.71082,3.798931 8.28075,4.574051 2.1902,0.475546 7.77104,0.121165 9.89442,-0.628294 z m -9.15139,-5.687587 -2.45697,-0.124167 -0.99533,-2.60648 c -0.54742,-1.433565 -1.31379,-3.819312 -1.70303,-5.301661 l -0.7077,-2.69518 1.44,-1.25496 c 1.85049,-1.612711 7.0303,-5.182292 7.52,-5.182292 0.48969,0 5.6695,3.569581 7.52,5.182292 l 1.44,1.25496 -0.70771,2.69518 c -0.38924,1.482349 -1.15785,3.873965 -1.70802,5.314708 l -1.0003,2.619526 h -1.68732 c -0.92803,0 -2.31943,0.05 -3.09199,0.11112 -0.77257,0.06111 -2.5103,0.05524 -3.86163,-0.01306 z M 109.46111,10.663585 c 1.76,-1.4264395 3.24495,-2.7122215 3.2999,-2.8573005 0.10789,-0.28486 -8.16946,-3.061472 -8.40987,-2.821062 -0.19519,0.19519 1.48965,8.2773575 1.72489,8.2742945 0.10179,-0.0013 1.62508,-1.169494 3.38508,-2.595932 z m 37.06256,-1.4552965 c 0.47126,-2.229501 0.78605,-4.12442 0.69954,-4.210928 -0.24844,-0.248439 -8.53341,2.51478 -8.422,2.808924 0.11777,0.310954 6.41515,5.4497065 6.68277,5.4532325 0.10057,0.0013 0.56844,-1.821728 1.03969,-4.0512285 z"
         style="fill:#156fbb;stroke-width:0.31999999" />
      <path
         inkscape:connector-curvature="0"
         id="path900"
         d="m 36.341106,149.42192 v -7.2 h -1.12 c -1.28489,0 -1.321247,-0.14748 -0.562789,-2.28297 l 0.557211,-1.56886 7.042789,0.0859 7.042789,0.0859 v 8.96 8.96 l -2,0.0953 -2,0.0953 v -7.2153 -7.21527 h -2.4 -2.4 v 7.2 7.2 h -2.08 -2.08 z m 17.92,0 v -7.2 h -1.314691 c -1.470173,0 -1.495487,-0.15721 -0.434281,-2.69704 l 0.509619,-1.21969 4.874726,0.13098 c 5.700135,0.15315 6.621172,0.48604 7.804627,2.82088 0.799395,1.57712 0.995264,4.99466 0.379642,6.62404 -0.821994,2.17559 -3.455454,3.62083 -6.597722,3.62083 h -1.38192 v 2.56 2.56 h -1.92 -1.92 z m 7.573719,-2.25935 c 0.530997,-0.72618 0.56172,-4.03721 0.04228,-4.55665 -0.2112,-0.2112 -1.1472,-0.384 -2.08,-0.384 h -1.695999 v 2.92071 2.92072 l 1.653719,-0.15891 c 1.094286,-0.10514 1.797926,-0.35611 2.08,-0.74187 z m 6.826281,0.34673 v -9.12738 h 6.114237 c 5.696637,0 6.098659,0.0383 5.88615,0.56 -0.125446,0.308 -0.442387,1.172 -0.704317,1.92 l -0.47623,1.36 h -3.32992 -3.32992 v 1.76 1.76 h 3.221565 c 3.609897,0 3.442675,-0.17599 2.356432,2.48 l -0.425341,1.04 h -2.576326 -2.57633 v 1.76 1.76 h 4.181565 4.181565 l -0.227277,0.72 c -0.125002,0.396 -0.401066,1.224 -0.613472,1.84 l -0.386199,1.12 -5.648089,0.0874 -5.648093,0.0874 z m 14.864589,8.70785 c -0.08543,-0.22263 -0.116909,-4.29063 -0.06996,-9.04 l 0.08537,-8.63523 1.469309,-0.0955 1.469312,-0.0955 2.344883,4.17546 c 1.289686,2.2965 2.428496,4.17106 2.530691,4.16568 0.102192,-0.005 1.193805,-1.84138 2.425805,-4.08 l 2.24,-4.07022 1.52,-0.0975 1.52,-0.0975 v 9.13755 9.13753 h -1.911664 -1.911667 l -0.08833,-4.88 -0.08834,-4.88 -1.28,2.16536 c -1.264714,2.1395 -1.295178,2.16434 -2.550925,2.08 -1.196944,-0.0804 -1.336653,-0.20165 -2.4,-2.08313 -0.620992,-1.09877 -1.237075,-1.99877 -1.369075,-2 -0.132,-0.001 -0.24,2.15777 -0.24,4.79777 v 4.8 h -1.770042 c -1.131968,0 -1.826038,-0.14591 -1.925369,-0.40477 z m 19.375415,-8.67816 v -9.15707 h 1.90705 1.90706 l 0.0929,2.64 0.0929,2.64 2.47765,0.17577 c 4.05282,0.28751 5.46662,1.75816 5.6214,5.84746 0.0843,2.2279 -0.0108,2.82968 -0.64,4.04945 -1.18036,2.28818 -2.2045,2.69101 -7.21361,2.83739 l -4.24543,0.12406 z m 7.94613,3.89667 c 0.28259,-0.74453 0.36935,-1.61746 0.233,-2.34429 -0.17543,-0.9351 -0.43554,-1.24924 -1.35117,-1.63181 -0.62365,-0.26058 -1.51508,-0.42965 -1.98094,-0.37571 -0.82714,0.0958 -0.84924,0.15752 -0.94141,2.62979 -0.0519,1.39244 -0.0321,2.69396 0.044,2.89227 0.0906,0.23602 0.72694,0.30106 1.84233,0.18829 1.61503,-0.16329 1.72748,-0.2342 2.15423,-1.35854 z m 6.77387,-3.92636 v -9.12738 h 6.11423 c 5.69664,0 6.09866,0.0383 5.88615,0.56 -0.12544,0.308 -0.44238,1.172 -0.70431,1.92 l -0.47623,1.36 h -3.32992 -3.32992 v 1.78125 1.78126 l 3.21534,-0.10126 3.21535,-0.10125 -0.19708,0.78228 c -0.10839,0.43025 -0.39594,1.25825 -0.63901,1.84 l -0.44195,1.05772 h -2.57632 -2.57633 v 1.76 1.76 h 4.18156 4.18157 l -0.22728,0.72 c -0.125,0.396 -0.40107,1.224 -0.61347,1.84 l -0.3862,1.12 -5.64809,0.0874 -5.64809,0.0874 z m 15.68,1.91262 v -7.2 h -1.12 c -1.29248,0 -1.34065,-0.19322 -0.57837,-2.32 l 0.54479,-1.52 h 3.92104 c 4.89858,0 6.85772,0.39442 8.09249,1.62918 1.18622,1.18622 1.7888,3.69039 1.48095,6.15438 -0.41289,3.30464 -2.22881,4.87317 -6.05547,5.23051 l -2.12543,0.19848 v 2.51372 2.51373 h -2.08 -2.08 z m 7.47684,-2.10323 c 0.72338,-0.569 0.84316,-0.90671 0.84316,-2.37714 0,-2.19947 -0.494,-2.71963 -2.58286,-2.71963 h -1.57714 v 2.88 2.88 h 1.23684 c 0.76674,0 1.55732,-0.25208 2.08,-0.66323 z m 17.01457,8.16119 c -0.99157,-2.37318 -0.98751,-2.69739 0.0339,-2.70286 1.95671,-0.0105 2.33854,-0.9347 2.57838,-6.24086 l 0.19501,-4.31424 h -1.36404 c -1.5221,0 -1.54954,-0.14597 -0.49966,-2.65867 l 0.49359,-1.18133 h 6.2357 6.23571 v 9.12 9.12 h -2.08 -2.08 v -7.2 -7.2 h -1.76 -1.76 v 4.30425 c 0,5.33785 -0.38059,7.26208 -1.72692,8.73119 -0.79986,0.87279 -1.33061,1.14318 -2.50336,1.27537 -1.47512,0.16627 -1.49282,0.15694 -1.99831,-1.05285 z m 18.70859,-6.05796 v -7.2 h -1.30156 c -1.4351,0 -1.40336,0.17606 -0.46144,-2.56 l 0.38557,-1.12 2.60073,-0.0928 2.60072,-0.0928 0.088,5.21153 0.088,5.21153 2.88,-5.11871 2.88,-5.11872 1.68,-0.0967 1.68,-0.0967 v 9.13665 9.13672 h -1.92002 -1.92 v -5.12 c 0,-2.816 -0.108,-5.11516 -0.24,-5.10925 -0.132,0.006 -1.50972,2.30992 -3.06159,5.12 l -2.82158,5.10925 h -1.57842 -1.57841 z m 17.28,-1.92 v -9.12 h 5.63424 c 5.23949,0 5.61825,0.0392 5.40615,0.56 -0.12545,0.308 -0.44239,1.172 -0.70432,1.92 l -0.47623,1.36 h -2.84992 -2.84992 v 7.2 7.2 h -2.08 -2.08 z m 9.28,9.04815 c 0,-0.0563 1.08,-3.24015 2.4,-7.0752 1.32,-3.83504 2.4,-7.03584 2.4,-7.11288 0,-0.077 -0.44761,-0.14007 -0.99469,-0.14007 -0.92037,0 -0.97852,-0.0644 -0.77827,-0.86228 0.11903,-0.47425 0.41796,-1.34466 0.6643,-1.93423 l 0.44789,-1.07195 2.29856,0.0942 2.29857,0.0942 3.14078,8.64 c 1.72743,4.752 3.14575,8.82 3.15182,9.04 0.008,0.27548 -0.56917,0.4 -1.85278,0.4 h -1.86382 l -0.47121,-1.52 -0.47121,-1.52 -2.76294,-0.0921 -2.76295,-0.0921 -0.43151,1.53214 -0.43151,1.53214 -1.99052,0.0953 c -1.09478,0.0524 -1.99051,0.0492 -1.99051,-0.007 z m 8.96,-6.70545 c 0,-0.596 -1.3861,-4.7427 -1.58533,-4.7427 -0.25548,0 -1.55496,4.75304 -1.35433,4.95368 0.34728,0.34728 2.93966,0.16123 2.93966,-0.21098 z m -64.17639,-2.52432 0.70305,-1.94162 3.74028,-0.0584 c 2.38224,-0.0372 3.6978,0.0578 3.62328,0.26162 -0.0643,0.176 -0.36555,1.076 -0.66933,2 l -0.55232,1.68 h -3.774 -3.774 z M 66.421106,129.06402 c -1.412081,-0.56012 -2.874379,-2.26666 -3.368769,-3.93145 -0.629868,-2.121 -0.623774,-7.88082 0.0106,-10.01699 0.580251,-1.95391 2.434105,-3.79134 4.150032,-4.11325 2.123693,-0.3984 4.808003,-0.0114 6.169187,0.88936 2.073888,1.37243 2.46312,2.5687 2.580794,7.93187 0.100201,4.56672 0.08722,4.66965 -0.804493,6.37658 -1.216438,2.32853 -2.857485,3.23006 -5.82768,3.2015 -1.160321,-0.0112 -2.469671,-0.16309 -2.909671,-0.33762 z m 4.79695,-4.27886 c 0.61922,-0.65912 0.773914,-1.23554 0.895565,-3.33699 0.289283,-4.99718 -0.433885,-6.74625 -2.789289,-6.74625 -0.976573,0 -1.404644,0.18798 -1.92,0.84316 -0.585357,0.74416 -0.663226,1.28387 -0.663226,4.59684 0,3.31297 0.07787,3.85268 0.663226,4.59684 0.908352,1.15479 2.751388,1.17721 3.813724,0.0464 z m 10.639927,3.96152 c -2.722032,-1.34738 -3.372048,-3.21166 -3.223351,-9.24476 0.12361,-5.01524 0.548269,-6.26211 2.593789,-7.61577 0.9368,-0.61994 1.791744,-0.87204 3.278336,-0.9667 3.346003,-0.21306 5.256615,0.84919 6.384691,3.54971 0.559424,1.33921 0.660298,1.23207 -1.73998,1.84805 -1.110116,0.28488 -1.458775,0.27947 -1.56,-0.0242 -0.454589,-1.36377 -2.484084,-2.0237 -3.897399,-1.26731 -0.822531,0.4402 -1.269395,2.24126 -1.269395,5.11623 0,2.87497 0.446864,4.67603 1.269395,5.11623 1.552061,0.83064 3.847037,-0.0898 3.847037,-1.5429 0,-0.32266 0.08452,-0.67118 0.187824,-0.77449 0.17153,-0.17153 3.317402,0.62019 3.623446,0.91191 0.0722,0.0688 -0.03964,0.69556 -0.248524,1.39277 -0.48337,1.61334 -1.797863,3.18024 -3.137527,3.73999 -1.597472,0.66747 -4.507341,0.55373 -6.108342,-0.23875 z m 14.325705,-0.025 c -2.539385,-1.30692 -3.522582,-3.70165 -3.522582,-8.57976 0,-4.87551 0.988522,-7.28599 3.510387,-8.56 1.669632,-0.84347 4.550827,-0.97042 6.217707,-0.27396 1.25672,0.5251 2.66806,2.25472 2.93698,3.59932 0.18529,0.92648 0.14514,0.96236 -1.50196,1.34256 -1.6917,0.39049 -1.69264,0.39027 -2.45093,-0.57864 -0.52768,-0.67426 -1.03574,-0.96928 -1.669205,-0.96928 -2.322611,0 -2.882979,1.05738 -2.882979,5.44 0,4.3826 0.560371,5.44 2.882947,5.44 1.012487,0 2.237057,-1.26161 2.237057,-2.30472 0,-0.65779 0.026,-0.65549 2.56,0.22557 1.30561,0.45396 1.34981,1.11417 0.21229,3.1708 -1.09726,1.98384 -2.12792,2.56126 -4.788528,2.68276 -1.912707,0.0874 -2.547766,-0.0204 -3.741184,-0.6346 z m 50.877422,0.19006 c -2.88614,-1.25012 -3.84,-3.42856 -3.84,-8.76982 0,-4.38233 0.53697,-6.26334 2.22274,-7.78634 1.42358,-1.28611 2.71884,-1.62978 5.40914,-1.43518 2.27041,0.16422 3.71904,1.10168 4.55838,2.94986 0.8247,1.81594 0.77543,2.00215 -0.59026,2.23059 -0.66,0.1104 -1.524,0.2896 -1.92,0.39822 -0.50835,0.13944 -0.72,0.06 -0.72,-0.27023 0,-0.79421 -1.11423,-1.52692 -2.32197,-1.52692 -0.86293,0 -1.31782,0.21134 -1.8148,0.84316 -0.58536,0.74416 -0.66323,1.28387 -0.66323,4.59684 0,3.31297 0.0779,3.85268 0.66323,4.59684 0.50709,0.64467 0.94741,0.84316 1.8704,0.84316 1.34885,0 2.08997,-0.61304 2.44092,-2.01908 0.1352,-0.54167 0.38629,-0.83697 0.63162,-0.74283 0.22397,0.0859 1.01264,0.33765 1.75261,0.55935 1.29188,0.38706 1.33847,0.44577 1.1713,1.47595 -0.2621,1.6151 -1.40752,3.23148 -2.78958,3.93656 -1.50109,0.7658 -4.43528,0.82384 -6.0605,0.11987 z m -98.880004,-7.00982 v -7.2 H 46.920593 45.66008 l 0.570712,-1.68 0.570711,-1.68 5.089802,-0.0832 c 4.583177,-0.0749 5.191589,-0.0207 6.112414,0.54472 1.968083,1.20841 2.865786,3.74943 2.468574,6.98751 -0.39556,3.22461 -2.278277,4.80874 -6.077589,5.11371 l -2.053598,0.16488 v 2.51619 2.51619 h -2.08 -2.08 z m 7.579376,-2.13578 c 0.566135,-0.53186 0.740624,-1.04282 0.740624,-2.1688 0,-2.1806 -0.636488,-2.89542 -2.578145,-2.89542 h -1.581855 v 2.88 2.88 h 1.339376 c 0.934751,0 1.563117,-0.2102 2.08,-0.69578 z m 53.540628,2.13578 v -7.2 h -1.12 c -1.27639,0 -1.32305,-0.18872 -0.5426,-2.1945 l 0.5426,-1.3945 2.56,0.003 2.56,0.003 v 4.99189 c 0,2.74555 0.072,4.99109 0.16,4.99011 0.088,-9.6e-4 1.39779,-2.1971 2.91065,-4.88025 l 2.75066,-4.87846 1.64934,-0.16889 1.64935,-0.16888 v 9.04888 9.04889 h -1.91208 -1.91207 l -0.0879,-5.1313 -0.0879,-5.13135 -2.86443,5.1313 -2.86443,5.1313 h -1.69556 -1.69557 z m 17.92,0 v -7.2 h -1.12 c -1.2809,0 -1.32808,-0.19911 -0.51938,-2.192 l 0.56486,-1.392 2.53726,3.2e-4 2.53726,3.2e-4 v 4.99189 c 0,2.74555 0.0782,4.99179 0.17376,4.99165 0.0956,-1.4e-4 1.40657,-2.19625 2.91333,-4.88025 l 2.73955,-4.88 1.66293,-0.17042 c 0.91461,-0.0937 1.72762,-0.10572 1.80668,-0.0266 0.0791,0.0791 0.14375,4.15181 0.14375,9.05047 v 8.90662 h -2.07207 -2.07208 l -0.0879,-5.11666 -0.0879,-5.11665 -2.85268,5.11665 -2.85267,5.11666 h -1.70738 -1.70732 z m 30.72,-1.84 v -9.04 h 1.92 1.92 v 3.6 c 0,3.52154 0.0157,3.59989 0.72,3.59481 0.61236,-0.004 0.94728,-0.54264 2.24018,-3.6 l 1.52018,-3.59481 h 2.23982 c 1.2319,0 2.23982,0.0381 2.23982,0.0846 0,0.0465 -0.93613,1.95272 -2.0803,4.23603 l -2.0803,4.15145 2.2403,4.69234 c 1.23217,2.58078 2.2403,4.74888 2.2403,4.81799 0,0.0691 -1.02494,0.0833 -2.27765,0.0316 l -2.27765,-0.094 -1.63053,-3.6 c -1.38682,-3.06191 -1.73991,-3.6 -2.36235,-3.6 -0.72,0 -0.73182,0.0594 -0.73182,3.68 v 3.68 h -1.92 -1.92 z m 16.81912,1.94277 c 1.30948,-3.91972 2.38088,-7.16637 2.38088,-7.21477 0,-0.0484 -0.432,-0.088 -0.96,-0.088 -1.10254,0 -1.14389,-0.23733 -0.3826,-2.19601 l 0.5426,-1.396 2.3813,0.002 2.3813,0.002 3.25315,8.99369 3.25315,8.99384 h -2.00874 -2.00873 l -0.53143,-1.6 -0.53143,-1.6 h -2.67569 -2.67568 l -0.42809,1.52 -0.42808,1.52 -1.9714,0.0948 -1.97139,0.0948 z m 6.54088,0.31993 c 0,-0.59321 -1.38572,-4.74295 -1.58299,-4.74049 -0.24834,0.003 -1.54408,4.76405 -1.34953,4.9586 0.34218,0.34219 2.93252,0.14953 2.93252,-0.21811 z m 7.68,6.63988 c 0,-0.0756 0.64352,-1.52391 1.43004,-3.21852 l 1.43004,-3.08111 -1.10558,-0.9707 c -1.3577,-1.19208 -1.88649,-2.95514 -1.65599,-5.52124 0.17907,-1.99343 0.74463,-3.03566 2.26351,-4.17124 0.79231,-0.59236 1.46876,-0.67612 6.62081,-0.81977 3.15608,-0.088 5.73807,-0.10066 5.73775,-0.0281 -3.2e-4,0.0725 -0.24288,0.90053 -0.53902,1.84 -0.39089,1.24007 -0.6978,1.70813 -1.12,1.70813 -0.54485,0 -0.58156,0.4545 -0.58156,7.2 v 7.2 h -2.08 -2.08 v -2.88 c 0,-2.84727 -0.009,-2.88 -0.78831,-2.88 -0.68022,0 -0.97176,0.39485 -2.12641,2.88 l -1.3381,2.88 h -2.03359 c -1.11848,0 -2.03359,-0.0618 -2.03359,-0.13742 z m 8.25294,-11.62258 0.0929,-2.64 h -1.50774 c -2.03146,0 -2.67814,0.61815 -2.67814,2.56 0,1.64393 0.54174,2.39242 1.92,2.65276 1.9996,0.3777 2.07209,0.29186 2.17294,-2.57276 z m -65.52637,-7.46038 c -0.43638,-0.18333 -1.0637,-0.57774 -1.39405,-0.87647 -0.64888,-0.58678 -1.93867,-2.92367 -1.72925,-3.13309 0.0704,-0.0704 0.80841,-0.33273 1.64012,-0.58303 1.48483,-0.44687 1.5174,-0.4414 1.80011,0.3022 0.75217,1.97835 3.11549,2.14702 4.20518,0.30012 l 0.6153,-1.04284 1.58801,0.50782 c 0.87341,0.27931 1.58564,0.58834 1.58275,0.68675 -0.0163,0.55205 -1.56369,2.77438 -2.32497,3.33895 -1.02318,0.75881 -4.64606,1.06131 -5.9832,0.49959 z m -0.48657,-18.675807 c -0.352,-0.23244 -3.664,-2.27084 -7.36,-4.52977 -8.07408,-4.93474 -23.07616,-14.9455 -29.917076,-19.963416 C 85.782789,60.726148 73.154885,50.699354 67.27598,45.537604 l -1.225127,-1.075677 1.646189,-6.56 c 3.157734,-12.583466 7.284122,-26.613395 10.364304,-35.2391745 1.795114,-5.027056 2.442432,-6.505825 4.061094,-9.277353 l 1.308941,-2.241218 -1.460777,-3.2728905 c -3.477824,-7.792114 -3.661946,-14.027438 -0.547866,-18.5536 1.382118,-2.008841 3.369686,-3.12863 5.915926,-3.333018 2.711124,-0.217623 3.631732,0.226478 10.69657,5.160019 l 5.781676,4.037479 3.75168,-0.967331 c 8.46399,-2.182347 27.9602,-2.182566 36.42344,-4.16e-4 l 3.75009,0.966921 6.18117,-4.294899 c 6.98639,-4.854392 8.86386,-5.904326 11.01317,-6.158881 1.84044,-0.217972 4.97009,0.534359 7.14328,1.717159 3.52601,1.919095 5.95546,5.932649 6.25737,10.337447 l 0.17545,2.559756 h 0.91427 c 0.50286,0 0.91428,0.05933 0.91428,0.13185 0,1.763131 -1.94568,8.258721 -3.2401,10.8170015 l -0.60153,1.188853 1.61878,2.479723 c 1.93764,2.968172 3.40407,5.99571804 4.73831,9.782572 l 0.98654,2.8 h -1.591 c -0.87505,0 -1.591,0.133571 -1.591,0.296822 0,0.163255 0.65228,2.359255 1.44952,4.8800005 1.44362,4.564519 4.27501,14.359904 5.60278,19.383178 0.62394,2.360538 0.77748,2.64 1.45042,2.64 0.86112,0 0.72336,-0.399978 2.69698,7.830371 1.27018,5.296896 1.28723,5.442403 0.69367,5.92 -0.33469,0.269296 -3.61561,3.015018 -7.29095,6.1016 -9.23017,7.7516 -8.24615,7.136352 -11.28532,7.056016 l -2.55643,-0.06758 -2.27485,1.699795 -2.27484,1.699795 2.65451,0.16 2.65451,0.16 -6.88,5.140373 c -3.784,2.827196 -8.536,6.295376 -10.56,7.707056 -8.77981,6.12365 -21.81519,14.525 -22.49142,14.49579 -0.21372,-0.009 -0.67658,-0.20697 -1.02858,-0.43941 z m -0.62724,-37.797521 c 4.00426,-1.036557 6.847,-3.081306 8.41588,-6.053437 l 0.85136,-1.612848 v -10.56 c 0,-8.53856 -0.0895,-10.774394 -0.46766,-11.68 -0.61141,-1.464262 -8.50759,-15.2133705 -9.51068,-16.5603365 -1.02416,-1.375245 -2.30495,-1.999664 -4.10166,-1.999664 -1.56375,0 -2.86191,0.51695 -3.73473,1.487238 -0.68114,0.757191 -9.26155,15.5843365 -9.87995,17.0727625 -0.37458,0.901587 -0.46532,3.148109 -0.46532,11.52 0,10.240646 0.0115,10.425565 0.75441,12.068403 1.32957,2.940352 4.36863,5.228426 8.36559,6.298352 2.35276,0.629802 7.37649,0.63984 9.77276,0.01952 z M 120.08529,46.30961 c -0.85534,-1.724825 -3.10418,-8.696937 -3.10418,-9.623917 0,-0.385104 6.14952,-5.095763 7.84239,-6.007436 l 1.0747,-0.578762 2.34145,1.556483 c 2.8976,1.926179 6.34146,4.66497 6.34146,5.043155 0,0.613901 -1.72394,6.226938 -2.52302,8.21481 l -0.84737,2.107984 -5.34262,0.08768 -5.34261,0.08768 z m -10.29192,-35.8152 c 1.84765,-1.5221345 3.30572,-2.8211655 3.24015,-2.8867335 -0.26549,-0.265491 -8.65653,-2.9683 -8.79265,-2.832176 -0.33091,0.330906 1.48764,8.4864265 1.89233,8.4864265 0.16545,0 1.81252,-1.245382 3.66017,-2.767517 z m 36.42034,0.607517 c 0.92778,-4.1413825 1.29075,-6.1433155 1.14099,-6.2930755 -0.0829,-0.08294 -2.14126,0.503539 -4.57405,1.303283 -2.43279,0.799741 -4.30092,1.57521 -4.1514,1.723264 1.17719,1.165626 6.42934,5.3847015 6.72621,5.4032005 0.20741,0.01293 0.59014,-0.939907 0.85825,-2.136672 z"
         style="fill:#dd151b;stroke-width:0.31999999" />
      <path
         inkscape:connector-curvature="0"
         id="path898"
         d="m 36.341106,149.42192 v -7.2 h -1.12 c -1.28489,0 -1.321247,-0.14748 -0.562789,-2.28297 l 0.557211,-1.56886 7.042789,0.0859 7.042789,0.0859 v 8.96 8.96 l -2,0.0953 -2,0.0953 v -7.2153 -7.21527 h -2.4 -2.4 v 7.2 7.2 h -2.08 -2.08 z m 17.92,0 v -7.2 h -1.314691 c -1.470173,0 -1.495487,-0.15721 -0.434281,-2.69704 l 0.509619,-1.21969 4.874726,0.13098 c 5.700135,0.15315 6.621172,0.48604 7.804627,2.82088 0.799395,1.57712 0.995264,4.99466 0.379642,6.62404 -0.821994,2.17559 -3.455454,3.62083 -6.597722,3.62083 h -1.38192 v 2.56 2.56 h -1.92 -1.92 z m 7.573719,-2.25935 c 0.530997,-0.72618 0.56172,-4.03721 0.04228,-4.55665 -0.2112,-0.2112 -1.1472,-0.384 -2.08,-0.384 h -1.695999 v 2.92071 2.92072 l 1.653719,-0.15891 c 1.094286,-0.10514 1.797926,-0.35611 2.08,-0.74187 z m 6.826281,0.34673 v -9.12738 h 6.114237 c 5.696637,0 6.098659,0.0383 5.88615,0.56 -0.125446,0.308 -0.442387,1.172 -0.704317,1.92 l -0.47623,1.36 h -3.32992 -3.32992 v 1.76 1.76 h 3.221565 c 3.609897,0 3.442675,-0.17599 2.356432,2.48 l -0.425341,1.04 h -2.576326 -2.57633 v 1.76 1.76 h 4.181565 4.181565 l -0.227277,0.72 c -0.125002,0.396 -0.401066,1.224 -0.613472,1.84 l -0.386199,1.12 -5.648089,0.0874 -5.648093,0.0874 z m 14.864589,8.70785 c -0.08543,-0.22263 -0.116909,-4.29063 -0.06996,-9.04 l 0.08537,-8.63523 1.469309,-0.0955 1.469312,-0.0955 2.344883,4.17546 c 1.289686,2.2965 2.428496,4.17106 2.530691,4.16568 0.102192,-0.005 1.193805,-1.84138 2.425805,-4.08 l 2.24,-4.07022 1.52,-0.0975 1.52,-0.0975 v 9.13755 9.13753 h -1.911664 -1.911667 l -0.08833,-4.88 -0.08834,-4.88 -1.28,2.16536 c -1.264714,2.1395 -1.295178,2.16434 -2.550925,2.08 -1.196944,-0.0804 -1.336653,-0.20165 -2.4,-2.08313 -0.620992,-1.09877 -1.237075,-1.99877 -1.369075,-2 -0.132,-0.001 -0.24,2.15777 -0.24,4.79777 v 4.8 h -1.770042 c -1.131968,0 -1.826038,-0.14591 -1.925369,-0.40477 z m 19.375415,-8.67816 v -9.15707 h 1.90705 1.90706 l 0.0929,2.64 0.0929,2.64 2.47765,0.17577 c 4.05282,0.28751 5.46662,1.75816 5.6214,5.84746 0.0843,2.2279 -0.0108,2.82968 -0.64,4.04945 -1.18036,2.28818 -2.2045,2.69101 -7.21361,2.83739 l -4.24543,0.12406 z m 7.94613,3.89667 c 0.28259,-0.74453 0.36935,-1.61746 0.233,-2.34429 -0.17543,-0.9351 -0.43554,-1.24924 -1.35117,-1.63181 -0.62365,-0.26058 -1.51508,-0.42965 -1.98094,-0.37571 -0.82714,0.0958 -0.84924,0.15752 -0.94141,2.62979 -0.0519,1.39244 -0.0321,2.69396 0.044,2.89227 0.0906,0.23602 0.72694,0.30106 1.84233,0.18829 1.61503,-0.16329 1.72748,-0.2342 2.15423,-1.35854 z m 6.77387,-3.92636 v -9.12738 h 6.11423 c 5.69664,0 6.09866,0.0383 5.88615,0.56 -0.12544,0.308 -0.44238,1.172 -0.70431,1.92 l -0.47623,1.36 h -3.32992 -3.32992 v 1.78125 1.78126 l 3.21534,-0.10126 3.21535,-0.10125 -0.19708,0.78228 c -0.10839,0.43025 -0.39594,1.25825 -0.63901,1.84 l -0.44195,1.05772 h -2.57632 -2.57633 v 1.76 1.76 h 4.18156 4.18157 l -0.22728,0.72 c -0.125,0.396 -0.40107,1.224 -0.61347,1.84 l -0.3862,1.12 -5.64809,0.0874 -5.64809,0.0874 z m 15.68,1.91262 v -7.2 h -1.12 c -1.29248,0 -1.34065,-0.19322 -0.57837,-2.32 l 0.54479,-1.52 h 3.92104 c 4.89858,0 6.85772,0.39442 8.09249,1.62918 1.18622,1.18622 1.7888,3.69039 1.48095,6.15438 -0.41289,3.30464 -2.22881,4.87317 -6.05547,5.23051 l -2.12543,0.19848 v 2.51372 2.51373 h -2.08 -2.08 z m 7.47684,-2.10323 c 0.72338,-0.569 0.84316,-0.90671 0.84316,-2.37714 0,-2.19947 -0.494,-2.71963 -2.58286,-2.71963 h -1.57714 v 2.88 2.88 h 1.23684 c 0.76674,0 1.55732,-0.25208 2.08,-0.66323 z m 17.01457,8.16119 c -0.99157,-2.37318 -0.98751,-2.69739 0.0339,-2.70286 1.95671,-0.0105 2.33854,-0.9347 2.57838,-6.24086 l 0.19501,-4.31424 h -1.36404 c -1.5221,0 -1.54954,-0.14597 -0.49966,-2.65867 l 0.49359,-1.18133 h 6.2357 6.23571 v 9.12 9.12 h -2.08 -2.08 v -7.2 -7.2 h -1.76 -1.76 v 4.30425 c 0,5.33785 -0.38059,7.26208 -1.72692,8.73119 -0.79986,0.87279 -1.33061,1.14318 -2.50336,1.27537 -1.47512,0.16627 -1.49282,0.15694 -1.99831,-1.05285 z m 18.70859,-6.05796 v -7.2 h -1.30156 c -1.4351,0 -1.40336,0.17606 -0.46144,-2.56 l 0.38557,-1.12 2.60073,-0.0928 2.60072,-0.0928 0.088,5.21153 0.088,5.21153 2.88,-5.11871 2.88,-5.11872 1.68,-0.0967 1.68,-0.0967 v 9.13665 9.13672 h -1.92002 -1.92 v -5.12 c 0,-2.816 -0.108,-5.11516 -0.24,-5.10925 -0.132,0.006 -1.50972,2.30992 -3.06159,5.12 l -2.82158,5.10925 h -1.57842 -1.57841 z m 17.28,-1.92 v -9.12 h 5.63424 c 5.23949,0 5.61825,0.0392 5.40615,0.56 -0.12545,0.308 -0.44239,1.172 -0.70432,1.92 l -0.47623,1.36 h -2.84992 -2.84992 v 7.2 7.2 h -2.08 -2.08 z m 9.28,9.04815 c 0,-0.0563 1.08,-3.24015 2.4,-7.0752 1.32,-3.83504 2.4,-7.03584 2.4,-7.11288 0,-0.077 -0.44761,-0.14007 -0.99469,-0.14007 -0.92037,0 -0.97852,-0.0644 -0.77827,-0.86228 0.11903,-0.47425 0.41796,-1.34466 0.6643,-1.93423 l 0.44789,-1.07195 2.29856,0.0942 2.29857,0.0942 3.14078,8.64 c 1.72743,4.752 3.14575,8.82 3.15182,9.04 0.008,0.27548 -0.56917,0.4 -1.85278,0.4 h -1.86382 l -0.47121,-1.52 -0.47121,-1.52 -2.76294,-0.0921 -2.76295,-0.0921 -0.43151,1.53214 -0.43151,1.53214 -1.99052,0.0953 c -1.09478,0.0524 -1.99051,0.0492 -1.99051,-0.007 z m 8.96,-6.70545 c 0,-0.596 -1.3861,-4.7427 -1.58533,-4.7427 -0.25548,0 -1.55496,4.75304 -1.35433,4.95368 0.34728,0.34728 2.93966,0.16123 2.93966,-0.21098 z m -64.17639,-2.52432 0.70305,-1.94162 3.74028,-0.0584 c 2.38224,-0.0372 3.6978,0.0578 3.62328,0.26162 -0.0643,0.176 -0.36555,1.076 -0.66933,2 l -0.55232,1.68 h -3.774 -3.774 z M 66.421106,129.06402 c -1.412081,-0.56012 -2.874379,-2.26666 -3.368769,-3.93145 -0.629868,-2.121 -0.623774,-7.88082 0.0106,-10.01699 0.580251,-1.95391 2.434105,-3.79134 4.150032,-4.11325 2.123693,-0.3984 4.808003,-0.0114 6.169187,0.88936 2.073888,1.37243 2.46312,2.5687 2.580794,7.93187 0.100201,4.56672 0.08722,4.66965 -0.804493,6.37658 -1.216438,2.32853 -2.857485,3.23006 -5.82768,3.2015 -1.160321,-0.0112 -2.469671,-0.16309 -2.909671,-0.33762 z m 4.79695,-4.27886 c 0.61922,-0.65912 0.773914,-1.23554 0.895565,-3.33699 0.289283,-4.99718 -0.433885,-6.74625 -2.789289,-6.74625 -0.976573,0 -1.404644,0.18798 -1.92,0.84316 -0.585357,0.74416 -0.663226,1.28387 -0.663226,4.59684 0,3.31297 0.07787,3.85268 0.663226,4.59684 0.908352,1.15479 2.751388,1.17721 3.813724,0.0464 z m 10.639927,3.96152 c -2.722032,-1.34738 -3.372048,-3.21166 -3.223351,-9.24476 0.12361,-5.01524 0.548269,-6.26211 2.593789,-7.61577 0.9368,-0.61994 1.791744,-0.87204 3.278336,-0.9667 3.346003,-0.21306 5.256615,0.84919 6.384691,3.54971 0.559424,1.33921 0.660298,1.23207 -1.73998,1.84805 -1.110116,0.28488 -1.458775,0.27947 -1.56,-0.0242 -0.454589,-1.36377 -2.484084,-2.0237 -3.897399,-1.26731 -0.822531,0.4402 -1.269395,2.24126 -1.269395,5.11623 0,2.87497 0.446864,4.67603 1.269395,5.11623 1.552061,0.83064 3.847037,-0.0898 3.847037,-1.5429 0,-0.32266 0.08452,-0.67118 0.187824,-0.77449 0.17153,-0.17153 3.317402,0.62019 3.623446,0.91191 0.0722,0.0688 -0.03964,0.69556 -0.248524,1.39277 -0.48337,1.61334 -1.797863,3.18024 -3.137527,3.73999 -1.597472,0.66747 -4.507341,0.55373 -6.108342,-0.23875 z m 14.325705,-0.025 c -2.539385,-1.30692 -3.522582,-3.70165 -3.522582,-8.57976 0,-4.87551 0.988522,-7.28599 3.510387,-8.56 1.669632,-0.84347 4.550827,-0.97042 6.217707,-0.27396 1.25672,0.5251 2.66806,2.25472 2.93698,3.59932 0.18529,0.92648 0.14514,0.96236 -1.50196,1.34256 -1.6917,0.39049 -1.69264,0.39027 -2.45093,-0.57864 -0.52768,-0.67426 -1.03574,-0.96928 -1.669205,-0.96928 -2.322611,0 -2.882979,1.05738 -2.882979,5.44 0,4.3826 0.560371,5.44 2.882947,5.44 1.012487,0 2.237057,-1.26161 2.237057,-2.30472 0,-0.65779 0.026,-0.65549 2.56,0.22557 1.30561,0.45396 1.34981,1.11417 0.21229,3.1708 -1.09726,1.98384 -2.12792,2.56126 -4.788528,2.68276 -1.912707,0.0874 -2.547766,-0.0204 -3.741184,-0.6346 z m 50.877422,0.19006 c -2.88614,-1.25012 -3.84,-3.42856 -3.84,-8.76982 0,-4.38233 0.53697,-6.26334 2.22274,-7.78634 1.42358,-1.28611 2.71884,-1.62978 5.40914,-1.43518 2.27041,0.16422 3.71904,1.10168 4.55838,2.94986 0.8247,1.81594 0.77543,2.00215 -0.59026,2.23059 -0.66,0.1104 -1.524,0.2896 -1.92,0.39822 -0.50835,0.13944 -0.72,0.06 -0.72,-0.27023 0,-0.79421 -1.11423,-1.52692 -2.32197,-1.52692 -0.86293,0 -1.31782,0.21134 -1.8148,0.84316 -0.58536,0.74416 -0.66323,1.28387 -0.66323,4.59684 0,3.31297 0.0779,3.85268 0.66323,4.59684 0.50709,0.64467 0.94741,0.84316 1.8704,0.84316 1.34885,0 2.08997,-0.61304 2.44092,-2.01908 0.1352,-0.54167 0.38629,-0.83697 0.63162,-0.74283 0.22397,0.0859 1.01264,0.33765 1.75261,0.55935 1.29188,0.38706 1.33847,0.44577 1.1713,1.47595 -0.2621,1.6151 -1.40752,3.23148 -2.78958,3.93656 -1.50109,0.7658 -4.43528,0.82384 -6.0605,0.11987 z m -98.880004,-7.00982 v -7.2 H 46.920593 45.66008 l 0.570712,-1.68 0.570711,-1.68 5.089802,-0.0832 c 4.583177,-0.0749 5.191589,-0.0207 6.112414,0.54472 1.968083,1.20841 2.865786,3.74943 2.468574,6.98751 -0.39556,3.22461 -2.278277,4.80874 -6.077589,5.11371 l -2.053598,0.16488 v 2.51619 2.51619 h -2.08 -2.08 z m 7.579376,-2.13578 c 0.566135,-0.53186 0.740624,-1.04282 0.740624,-2.1688 0,-2.1806 -0.636488,-2.89542 -2.578145,-2.89542 h -1.581855 v 2.88 2.88 h 1.339376 c 0.934751,0 1.563117,-0.2102 2.08,-0.69578 z m 53.540628,2.13578 v -7.2 h -1.12 c -1.27639,0 -1.32305,-0.18872 -0.5426,-2.1945 l 0.5426,-1.3945 2.56,0.003 2.56,0.003 v 4.99189 c 0,2.74555 0.072,4.99109 0.16,4.99011 0.088,-9.6e-4 1.39779,-2.1971 2.91065,-4.88025 l 2.75066,-4.87846 1.64934,-0.16889 1.64935,-0.16888 v 9.04888 9.04889 h -1.91208 -1.91207 l -0.0879,-5.1313 -0.0879,-5.13135 -2.86443,5.1313 -2.86443,5.1313 h -1.69556 -1.69557 z m 17.92,0 v -7.2 h -1.12 c -1.2809,0 -1.32808,-0.19911 -0.51938,-2.192 l 0.56486,-1.392 2.53726,3.2e-4 2.53726,3.2e-4 v 4.99189 c 0,2.74555 0.0782,4.99179 0.17376,4.99165 0.0956,-1.4e-4 1.40657,-2.19625 2.91333,-4.88025 l 2.73955,-4.88 1.66293,-0.17042 c 0.91461,-0.0937 1.72762,-0.10572 1.80668,-0.0266 0.0791,0.0791 0.14375,4.15181 0.14375,9.05047 v 8.90662 h -2.07207 -2.07208 l -0.0879,-5.11666 -0.0879,-5.11665 -2.85268,5.11665 -2.85267,5.11666 h -1.70738 -1.70732 z m 30.72,-1.84 v -9.04 h 1.92 1.92 v 3.6 c 0,3.52154 0.0157,3.59989 0.72,3.59481 0.61236,-0.004 0.94728,-0.54264 2.24018,-3.6 l 1.52018,-3.59481 h 2.23982 c 1.2319,0 2.23982,0.0381 2.23982,0.0846 0,0.0465 -0.93613,1.95272 -2.0803,4.23603 l -2.0803,4.15145 2.2403,4.69234 c 1.23217,2.58078 2.2403,4.74888 2.2403,4.81799 0,0.0691 -1.02494,0.0833 -2.27765,0.0316 l -2.27765,-0.094 -1.63053,-3.6 c -1.38682,-3.06191 -1.73991,-3.6 -2.36235,-3.6 -0.72,0 -0.73182,0.0594 -0.73182,3.68 v 3.68 h -1.92 -1.92 z m 16.81912,1.94277 c 1.30948,-3.91972 2.38088,-7.16637 2.38088,-7.21477 0,-0.0484 -0.432,-0.088 -0.96,-0.088 -1.10254,0 -1.14389,-0.23733 -0.3826,-2.19601 l 0.5426,-1.396 2.3813,0.002 2.3813,0.002 3.25315,8.99369 3.25315,8.99384 h -2.00874 -2.00873 l -0.53143,-1.6 -0.53143,-1.6 h -2.67569 -2.67568 l -0.42809,1.52 -0.42808,1.52 -1.9714,0.0948 -1.97139,0.0948 z m 6.54088,0.31993 c 0,-0.59321 -1.38572,-4.74295 -1.58299,-4.74049 -0.24834,0.003 -1.54408,4.76405 -1.34953,4.9586 0.34218,0.34219 2.93252,0.14953 2.93252,-0.21811 z m 7.68,6.63988 c 0,-0.0756 0.64352,-1.52391 1.43004,-3.21852 l 1.43004,-3.08111 -1.10558,-0.9707 c -1.3577,-1.19208 -1.88649,-2.95514 -1.65599,-5.52124 0.17907,-1.99343 0.74463,-3.03566 2.26351,-4.17124 0.79231,-0.59236 1.46876,-0.67612 6.62081,-0.81977 3.15608,-0.088 5.73807,-0.10066 5.73775,-0.0281 -3.2e-4,0.0725 -0.24288,0.90053 -0.53902,1.84 -0.39089,1.24007 -0.6978,1.70813 -1.12,1.70813 -0.54485,0 -0.58156,0.4545 -0.58156,7.2 v 7.2 h -2.08 -2.08 v -2.88 c 0,-2.84727 -0.009,-2.88 -0.78831,-2.88 -0.68022,0 -0.97176,0.39485 -2.12641,2.88 l -1.3381,2.88 h -2.03359 c -1.11848,0 -2.03359,-0.0618 -2.03359,-0.13742 z m 8.25294,-11.62258 0.0929,-2.64 h -1.50774 c -2.03146,0 -2.67814,0.61815 -2.67814,2.56 0,1.64393 0.54174,2.39242 1.92,2.65276 1.9996,0.3777 2.07209,0.29186 2.17294,-2.57276 z m -65.52637,-7.46038 c -0.43638,-0.18333 -1.0637,-0.57774 -1.39405,-0.87647 -0.64888,-0.58678 -1.93867,-2.92367 -1.72925,-3.13309 0.0704,-0.0704 0.80841,-0.33273 1.64012,-0.58303 1.48483,-0.44687 1.5174,-0.4414 1.80011,0.3022 0.75217,1.97835 3.11549,2.14702 4.20518,0.30012 l 0.6153,-1.04284 1.58801,0.50782 c 0.87341,0.27931 1.58564,0.58834 1.58275,0.68675 -0.0163,0.55205 -1.56369,2.77438 -2.32497,3.33895 -1.02318,0.75881 -4.64606,1.06131 -5.9832,0.49959 z M 119.43896,83.965383 C 106.79972,75.965133 94.344658,67.253447 83.864034,59.082506 79.115055,55.380093 70.128687,48.042314 67.27598,45.537604 l -1.225127,-1.075677 1.646189,-6.56 c 3.157734,-12.583466 7.284122,-26.613395 10.364304,-35.2391745 1.795114,-5.027056 2.442432,-6.505825 4.061094,-9.277353 l 1.308941,-2.241218 -1.460777,-3.2728905 c -3.477824,-7.792114 -3.661946,-14.027438 -0.547866,-18.5536 1.382118,-2.008841 3.369686,-3.12863 5.915926,-3.333018 2.711124,-0.217623 3.631732,0.226478 10.69657,5.160019 l 5.781676,4.037479 3.75168,-0.967331 c 8.46344,-2.182207 27.96021,-2.182564 36.42245,-6.72e-4 l 3.74909,0.966664 5.82049,-4.046826 c 6.78452,-4.717082 7.75354,-5.215544 10.15766,-5.225051 5.66186,-0.02239 9.33631,5.631104 8.57372,13.19148 -0.25976,2.575343 -1.17352,5.48736 -2.90291,9.251152 l -1.27261,2.7696605 1.32525,2.230729 c 0.72889,1.226902 1.80894,3.377582 2.4001,4.779288 1.45229,3.443523 5.22127,14.9993985 7.71612,23.6580165 2.05816,7.143065 5.90316,21.758598 5.90316,22.438985 0,0.401123 -6.64858,6.049181 -14.31819,12.163491 -10.01639,7.985207 -22.02473,16.630726 -32.40181,23.327996 -7.50136,4.84131 -12.76724,8.10475 -13.03759,8.07982 -0.13333,-0.0123 -2.95238,-1.73768 -6.26456,-3.83419 z m 11.15491,-30.557171 c 4.00426,-1.036557 6.847,-3.081306 8.41588,-6.053437 l 0.85136,-1.612848 v -10.56 c 0,-8.53856 -0.0895,-10.774394 -0.46766,-11.68 -0.61141,-1.464262 -8.50759,-15.2133705 -9.51068,-16.5603365 -1.02416,-1.375245 -2.30495,-1.999664 -4.10166,-1.999664 -1.56375,0 -2.86191,0.51695 -3.73473,1.487238 -0.68114,0.757191 -9.26155,15.5843365 -9.87995,17.0727625 -0.37458,0.901587 -0.46532,3.148109 -0.46532,11.52 0,10.240646 0.0115,10.425565 0.75441,12.068403 1.32957,2.940352 4.36863,5.228426 8.36559,6.298352 2.35276,0.629802 7.37649,0.63984 9.77276,0.01952 z M 120.08529,46.30961 c -0.85534,-1.724825 -3.10418,-8.696937 -3.10418,-9.623917 0,-0.385104 6.14952,-5.095763 7.84239,-6.007436 l 1.0747,-0.578762 2.34145,1.556483 c 2.8976,1.926179 6.34146,4.66497 6.34146,5.043155 0,0.613901 -1.72394,6.226938 -2.52302,8.21481 l -0.84737,2.107984 -5.34262,0.08768 -5.34261,0.08768 z m -10.29192,-35.8152 c 1.84765,-1.5221345 3.30572,-2.8211655 3.24015,-2.8867335 -0.26549,-0.265491 -8.65653,-2.9683 -8.79265,-2.832176 -0.33091,0.330906 1.48764,8.4864265 1.89233,8.4864265 0.16545,0 1.81252,-1.245382 3.66017,-2.767517 z m 36.42034,0.607517 c 0.92778,-4.1413825 1.29075,-6.1433155 1.14099,-6.2930755 -0.0829,-0.08294 -2.14126,0.503539 -4.57405,1.303283 -2.43279,0.799741 -4.30092,1.57521 -4.1514,1.723264 1.17719,1.165626 6.42934,5.3847015 6.72621,5.4032005 0.20741,0.01293 0.59014,-0.939907 0.85825,-2.136672 z"
         style="fill:#070606;stroke-width:0.31999999" />
    </g>
  </g>
  <g
     id="g878"
     transform="translate(-167.35305,93.467428)" />
</svg>
